vhdl/procesor/controller.vcd
$date
  Thu Jun 15 23:49:39 2017
$end
$version
  GHDL v0
$end
$timescale
  1 fs
$end
$var reg 8 ! data_in[7:0] $end
$var reg 1 " clk $end
$var reg 9 # data_out_66[8:0] $end
$var reg 5 $ address[4:0] $end
$var reg 1 % readwrite $end
$scope module rom_66 $end
$var reg 5 & address[4:0] $end
$var reg 1 ' readwrite $end
$var reg 9 ( data_out[8:0] $end
$upscope $end
$enddefinitions $end
#0
b00000000 !
0"
b000000000 #
b00000 $
0%
b00000 &
0'
b000000000 (
#4000000
b01100110 !
1"
#14000000
0"
#24000000
1"
b00001 $
b00001 &
#34000000
0"
#44000000
1"
b00010 $
b00010 &
#54000000
0"
#64000000
1"
b00011 $
b00011 &
#74000000
0"
#84000000
1"
b00100 $
b00100 &
#94000000
0"
#104000000
1"
b00101 $
b00101 &
#114000000
0"
#124000000
1"
b00110 $
b00110 &
#134000000
0"
#144000000
1"
b00111 $
b00111 &
#154000000
0"
#164000000
1"
b01000 $
b01000 &
#174000000
0"
#184000000
1"
b01001 $
b01001 &
#194000000
0"
#204000000
1"
b01010 $
b01010 &
